Foundations for inference - Confidence intervals
…
The data

We consider real estate data from the city of Ames, Iowa. This is the same dataset used in the previous lab. The details of every real estate transaction in Ames is recorded by the City Assessors office. Our particular focus for this lab will be all residential home sales in Ames between 2006 and 2010. This collection represents our population of interest. In this lab we would like to learn about these home sales by taking smaller samples from the full population. Lets load the data.

data(ames)

In this lab well start with a simple random sample of size 60 from the population. Specifically, this is a simple random sample of size 60. Note that the data set has information on many housing variables, but for the first portion of the lab well focus on the size of the house, represented by the variable area.

n <- 60 ## sample size
samp <- sample_n(ames, n)
samp

## # A tibble: 60 x 82
##    Order     PID  area  price MS.SubClass MS.Zoning Lot.Frontage Lot.Area Street
##    <int>   <int> <int>  <int>       <int> <fct>            <int>    <int> <fct> 
##  1   503  5.28e8  2061 260000          60 RL                  79     9085 Pave  
##  2   279  9.08e8  1096 125200          80 RL                  65     6305 Pave  
##  3  2470  5.28e8  1301 187750          20 FV                  60     7200 Pave  
##  4  2027  9.03e8  1344 140000          70 RM                  NA     5700 Pave  
##  5  1985  9.02e8  1141  85000          50 RM                  50     5925 Pave  
##  6  2430  5.28e8  1500 246578         120 RL                  53     4045 Pave  
##  7  1462  9.07e8  1786 300000          20 RL                  NA    14860 Pave  
##  8   439  5.28e8  1743 335000          20 RL                  87    10367 Pave  
##  9   650  5.35e8  1210 102900          20 RL                  75     9533 Pave  
## 10  2688  9.03e8   960 129000         190 RL                  60     9873 Pave  
## #  with 50 more rows, and 73 more variables: Alley <fct>, Lot.Shape <fct>,
## #   Land.Contour <fct>, Utilities <fct>, Lot.Config <fct>, Land.Slope <fct>,
## #   Neighborhood <fct>, Condition.1 <fct>, Condition.2 <fct>, Bldg.Type <fct>,
## #   House.Style <fct>, Overall.Qual <int>, Overall.Cond <int>,
## #   Year.Built <int>, Year.Remod.Add <int>, Roof.Style <fct>, Roof.Matl <fct>,
## #   Exterior.1st <fct>, Exterior.2nd <fct>, Mas.Vnr.Type <fct>,
## #   Mas.Vnr.Area <int>, Exter.Qual <fct>, Exter.Cond <fct>, Foundation <fct>,
## #   Bsmt.Qual <fct>, Bsmt.Cond <fct>, Bsmt.Exposure <fct>,
## #   BsmtFin.Type.1 <fct>, BsmtFin.SF.1 <int>, BsmtFin.Type.2 <fct>,
…
Calculate the samples mean and standard deviation, and use these to calculate and store the lower and upper bounds of the confidence intervals.

Repeat these steps 50 times.

We can accomplish this using the rep_sample_n function. The following lines of code takes 50 random samples of size n from population (and remember we defined \(n = 60\) earlier), and computes the upper and lower bounds of the confidence intervals based on these samples.

n=60
ci <- ames %>%
        rep_sample_n(size = n, reps = 50, replace = TRUE) %>%
        summarise(lower = mean(area) - z_star_95 * (sd(area) / sqrt(n)),
                  upper = mean(area) + z_star_95 * (sd(area) / sqrt(n)))

ci

## # A tibble: 50 x 3
##    replicate lower upper
##        <int> <dbl> <dbl>
##  1         1 1344. 1606.
##  2         2 1353. 1689.
##  3         3 1448. 1669.
##  4         4 1445. 1698.
##  5         5 1334. 1569.
##  6         6 1292. 1546.
##  7         7 1369. 1598.
##  8         8 1397. 1644.
##  9         9 1423. 1663.
## 10        10 1483. 1733.
## #  with 40 more rows
…
Next well create a plot similar to Figure 4.8 on page 175 of OpenIntro Statistics, 3rd Edition. First step will be to create a new variable in the ci data frame that indicates whether the interval does or does not capture the true population mean. Note that capturing this value would mean the lower bound of the confidence interval is below the value and upper bound of the confidence interval is above the value. Remember that we create new variables using the mutate function.

ci <- ci %>%
  mutate(capture_mu = ifelse(lower < params$mu & upper > params$mu, "yes", "no"))

ci

## # A tibble: 50 x 4
##    replicate lower upper capture_mu
##        <int> <dbl> <dbl> <chr>     
##  1         1 1344. 1606. yes       
##  2         2 1353. 1689. yes       
##  3         3 1448. 1669. yes       
##  4         4 1445. 1698. yes       
##  5         5 1334. 1569. yes       
##  6         6 1292. 1546. yes       
##  7         7 1369. 1598. yes       
##  8         8 1397. 1644. yes       
##  9         9 1423. 1663. yes       
## 10        10 1483. 1733. yes       
## #  with 40 more rows
…
